(kicad_sch (version 20230121) (generator eeschema)

  (uuid 443bc73a-8dc0-4e2f-a292-a5eff00efa5b)

  (paper "USLetter")

  (title_block
    (title "Sidekick VCO")
    (date "2022-03-12")
    (rev "2024-03-24")
    (company "Rich Holmes / Analog Output")
    (comment 1 "or neighboring rights to this work. Published from United States.")
    (comment 2 "To the extent possible under law, Richard Holmes has waived all copyright and related ")
  )

  (lib_symbols
    (symbol "AO_symbols:AudioJack2" (in_bom yes) (on_board yes)
      (property "Reference" "J" (at 0 8.89 0)
        (effects (font (size 1.27 1.27)))
      )
      (property "Value" "AudioJack2" (at 0 6.35 0)
        (effects (font (size 1.27 1.27)))
      )
      (property "Footprint" "AO_tht:Jack_6.35mm_PJ_629HAN" (at 0 0 0)
        (effects (font (size 1.27 1.27)) hide)
      )
      (property "Datasheet" "~" (at 0 0 0)
        (effects (font (size 1.27 1.27)) hide)
      )
      (property "Vendor" "Tayda" (at 0 0 0)
        (effects (font (size 1.27 1.27)) hide)
      )
      (property "SKU" "A-1121" (at 0 0 0)
        (effects (font (size 1.27 1.27)) hide)
      )
      (property "ki_keywords" "audio jack receptacle mono phone headphone TS connector" (at 0 0 0)
        (effects (font (size 1.27 1.27)) hide)
      )
      (property "ki_description" "Audio Jack, 2 Poles (Mono / TS)" (at 0 0 0)
        (effects (font (size 1.27 1.27)) hide)
      )
      (property "ki_fp_filters" "Jack*" (at 0 0 0)
        (effects (font (size 1.27 1.27)) hide)
      )
      (symbol "AudioJack2_0_1"
        (rectangle (start -3.81 0) (end -2.54 -2.54)
          (stroke (width 0.254) (type default))
          (fill (type outline))
        )
        (rectangle (start -2.54 3.81) (end 2.54 -2.54)
          (stroke (width 0.254) (type default))
          (fill (type background))
        )
        (polyline
          (pts
            (xy 0 0)
            (xy 0.635 -0.635)
            (xy 1.27 0)
            (xy 2.54 0)
          )
          (stroke (width 0.254) (type default))
          (fill (type none))
        )
        (polyline
          (pts
            (xy 2.54 2.54)
            (xy -0.635 2.54)
            (xy -0.635 0)
            (xy -1.27 -0.635)
            (xy -1.905 0)
          )
          (stroke (width 0.254) (type default))
          (fill (type none))
        )
      )
      (symbol "AudioJack2_1_1"
        (pin passive line (at 5.08 2.54 180) (length 2.54)
          (name "~" (effects (font (size 1.27 1.27))))
          (number "S" (effects (font (size 1.27 1.27))))
        )
        (pin passive line (at 5.08 0 180) (length 2.54)
          (name "~" (effects (font (size 1.27 1.27))))
          (number "T" (effects (font (size 1.27 1.27))))
        )
      )
    )
    (symbol "AO_symbols:Board" (pin_names (offset 1.016)) (in_bom no) (on_board yes)
      (property "Reference" "B" (at 1.27 3.81 0)
        (effects (font (size 1.27 1.27)))
      )
      (property "Value" "Board" (at -3.175 3.81 0)
        (effects (font (size 1.27 1.27)))
      )
      (property "Footprint" "AO_tht:Board_Marker" (at 0 0 0)
        (effects (font (size 1.27 1.27)) hide)
      )
      (property "Datasheet" "" (at 0 0 0)
        (effects (font (size 1.27 1.27)) hide)
      )
      (property "Config" "DNF" (at 0 0 0)
        (effects (font (size 1.27 1.27)) hide)
      )
      (property "ki_description" "Board marker annotation for KiKit" (at 0 0 0)
        (effects (font (size 1.27 1.27)) hide)
      )
      (symbol "Board_0_1"
        (polyline
          (pts
            (xy 5.08 -2.54)
            (xy 3.175 -2.54)
          )
          (stroke (width 0) (type default))
          (fill (type none))
        )
        (polyline
          (pts
            (xy -6.35 2.54)
            (xy 1.27 2.54)
            (xy 5.08 -2.54)
            (xy 5.08 -0.635)
          )
          (stroke (width 0) (type default))
          (fill (type none))
        )
      )
    )
    (symbol "AO_symbols:Graphic" (pin_names (offset 1.016)) (in_bom no) (on_board yes)
      (property "Reference" "GRAF" (at 0 -3.81 0)
        (effects (font (size 1.27 1.27)))
      )
      (property "Value" "Graphic" (at 0 3.81 0)
        (effects (font (size 1.27 1.27)))
      )
      (property "Footprint" "" (at 0 0 0)
        (effects (font (size 1.27 1.27)) hide)
      )
      (property "Datasheet" "" (at 0 0 0)
        (effects (font (size 1.27 1.27)) hide)
      )
      (property "Config" "DNF" (at 0 0 0)
        (effects (font (size 1.27 1.27)) hide)
      )
      (property "ki_description" "Graphic" (at 0 0 0)
        (effects (font (size 1.27 1.27)) hide)
      )
      (symbol "Graphic_0_0"
        (rectangle (start -6.35 2.54) (end 6.35 -2.54)
          (stroke (width 0) (type default))
          (fill (type background))
        )
        (text "ACME" (at 0 0 0)
          (effects (font (size 2.54 2.54)))
        )
      )
    )
    (symbol "AO_symbols:MountingHole" (pin_names (offset 1.016)) (in_bom no) (on_board yes)
      (property "Reference" "H" (at 0 5.08 0)
        (effects (font (size 1.27 1.27)))
      )
      (property "Value" "MountingHole" (at 0 3.175 0)
        (effects (font (size 1.27 1.27)))
      )
      (property "Footprint" "" (at 0 0 0)
        (effects (font (size 1.27 1.27)) hide)
      )
      (property "Datasheet" "" (at 0 0 0)
        (effects (font (size 1.27 1.27)) hide)
      )
      (property "Config" "DNF" (at 0 0 0)
        (effects (font (size 1.27 1.27)) hide)
      )
      (property "ki_description" "Mounting hole" (at 0 0 0)
        (effects (font (size 1.27 1.27)) hide)
      )
      (property "ki_fp_filters" "MountingHole*" (at 0 0 0)
        (effects (font (size 1.27 1.27)) hide)
      )
      (symbol "MountingHole_0_1"
        (circle (center 0 0) (radius 1.27)
          (stroke (width 1.27) (type default))
          (fill (type none))
        )
      )
    )
    (symbol "AO_symbols:R" (pin_numbers hide) (pin_names (offset 0)) (in_bom yes) (on_board yes)
      (property "Reference" "R" (at 2.032 0 90)
        (effects (font (size 1.27 1.27)))
      )
      (property "Value" "R" (at 0 0 90)
        (effects (font (size 1.27 1.27)))
      )
      (property "Footprint" "AO_tht:R_Axial_DIN0207_L6.3mm_D2.5mm_P10.16mm_Horizontal" (at -1.778 0 90)
        (effects (font (size 1.27 1.27)) hide)
      )
      (property "Datasheet" "" (at 0 0 0)
        (effects (font (size 1.27 1.27)) hide)
      )
      (property "Vendor" "Tayda" (at 0 0 0)
        (effects (font (size 1.27 1.27)) hide)
      )
      (property "ki_description" "Resistor" (at 0 0 0)
        (effects (font (size 1.27 1.27)) hide)
      )
      (property "ki_fp_filters" "R_*" (at 0 0 0)
        (effects (font (size 1.27 1.27)) hide)
      )
      (symbol "R_0_1"
        (rectangle (start -1.016 -2.54) (end 1.016 2.54)
          (stroke (width 0.254) (type default))
          (fill (type none))
        )
      )
      (symbol "R_1_1"
        (pin passive line (at 0 3.81 270) (length 1.27)
          (name "~" (effects (font (size 1.27 1.27))))
          (number "1" (effects (font (size 1.27 1.27))))
        )
        (pin passive line (at 0 -3.81 90) (length 1.27)
          (name "~" (effects (font (size 1.27 1.27))))
          (number "2" (effects (font (size 1.27 1.27))))
        )
      )
    )
    (symbol "AO_symbols:R_POT" (pin_names (offset 1.016) hide) (in_bom yes) (on_board yes)
      (property "Reference" "RV" (at -4.445 0 90)
        (effects (font (size 1.27 1.27)))
      )
      (property "Value" "R_POT" (at -2.54 0 90)
        (effects (font (size 1.27 1.27)))
      )
      (property "Footprint" "" (at 0 0 0)
        (effects (font (size 1.27 1.27)) hide)
      )
      (property "Datasheet" "~" (at 0 0 0)
        (effects (font (size 1.27 1.27)) hide)
      )
      (property "Vendor" "Tayda" (at 0 0 0)
        (effects (font (size 1.27 1.27)) hide)
      )
      (property "ki_keywords" "resistor variable" (at 0 0 0)
        (effects (font (size 1.27 1.27)) hide)
      )
      (property "ki_description" "Potentiometer" (at 0 0 0)
        (effects (font (size 1.27 1.27)) hide)
      )
      (property "ki_fp_filters" "Potentiometer*" (at 0 0 0)
        (effects (font (size 1.27 1.27)) hide)
      )
      (symbol "R_POT_0_0"
        (text "CW" (at 3.81 -2.286 0)
          (effects (font (size 0.762 0.762)))
        )
      )
      (symbol "R_POT_0_1"
        (rectangle (start -1.016 2.54) (end 1.016 -2.54)
          (stroke (width 0.254) (type default))
          (fill (type none))
        )
        (polyline
          (pts
            (xy 2.032 -3.302)
            (xy 2.032 -1.27)
          )
          (stroke (width 0.1524) (type default))
          (fill (type none))
        )
        (polyline
          (pts
            (xy 2.54 0)
            (xy 1.524 0)
          )
          (stroke (width 0) (type default))
          (fill (type none))
        )
        (polyline
          (pts
            (xy 2.54 -1.778)
            (xy 2.032 -1.27)
            (xy 1.524 -1.778)
          )
          (stroke (width 0.1524) (type default))
          (fill (type none))
        )
        (polyline
          (pts
            (xy 1.143 0)
            (xy 2.286 -0.508)
            (xy 2.286 0.508)
            (xy 1.143 0)
          )
          (stroke (width 0) (type default))
          (fill (type outline))
        )
      )
      (symbol "R_POT_1_1"
        (pin passive line (at 0 -3.81 90) (length 1.27)
          (name "1" (effects (font (size 1.27 1.27))))
          (number "1" (effects (font (size 1.27 1.27))))
        )
        (pin passive line (at 3.81 0 180) (length 1.27)
          (name "2" (effects (font (size 1.27 1.27))))
          (number "2" (effects (font (size 1.27 1.27))))
        )
        (pin passive line (at 0 3.81 270) (length 1.27)
          (name "3" (effects (font (size 1.27 1.27))))
          (number "3" (effects (font (size 1.27 1.27))))
        )
      )
    )
    (symbol "AO_symbols:SW_Rotary12" (pin_names (offset 1.016) hide) (in_bom yes) (on_board yes)
      (property "Reference" "SW" (at 0 17.78 0)
        (effects (font (size 1.27 1.27)))
      )
      (property "Value" "SW_Rotary12" (at 0 -17.78 0)
        (effects (font (size 1.27 1.27)))
      )
      (property "Footprint" "AO_tht:Rotary_Switch" (at -5.08 17.78 0)
        (effects (font (size 1.27 1.27)) hide)
      )
      (property "Datasheet" "http://cdn-reichelt.de/documents/datenblatt/C200/DS-Serie%23LOR.pdf" (at -5.08 17.78 0)
        (effects (font (size 1.27 1.27)) hide)
      )
      (property "Vendor" "Tayda" (at 0 0 0)
        (effects (font (size 1.27 1.27)) hide)
      )
      (property "SKU" "A-1893" (at 0 0 0)
        (effects (font (size 1.27 1.27)) hide)
      )
      (property "ki_keywords" "rotary switch" (at 0 0 0)
        (effects (font (size 1.27 1.27)) hide)
      )
      (property "ki_description" "rotary switch with 12 positions" (at 0 0 0)
        (effects (font (size 1.27 1.27)) hide)
      )
      (symbol "SW_Rotary12_0_0"
        (circle (center -10.16 -8.89) (radius 0.635)
          (stroke (width 0) (type default))
          (fill (type none))
        )
        (circle (center -10.16 8.89) (radius 0.635)
          (stroke (width 0) (type default))
          (fill (type none))
        )
        (circle (center -6.985 -9.525) (radius 0.635)
          (stroke (width 0) (type default))
          (fill (type none))
        )
        (circle (center -6.985 0) (radius 0.635)
          (stroke (width 0) (type default))
          (fill (type none))
        )
        (circle (center -6.985 9.525) (radius 0.635)
          (stroke (width 0) (type default))
          (fill (type none))
        )
        (arc (start -5.715 -5.715) (mid -1.6023 0.949) (end -8.255 5.08)
          (stroke (width 0) (type default))
          (fill (type none))
        )
        (circle (center -3.81 -8.89) (radius 0.635)
          (stroke (width 0) (type default))
          (fill (type none))
        )
        (circle (center -3.81 8.89) (radius 0.635)
          (stroke (width 0) (type default))
          (fill (type none))
        )
        (circle (center -0.635 -6.985) (radius 0.635)
          (stroke (width 0) (type default))
          (fill (type none))
        )
        (circle (center -0.635 6.985) (radius 0.635)
          (stroke (width 0) (type default))
          (fill (type none))
        )
        (polyline
          (pts
            (xy -6.985 0)
            (xy -10.16 8.89)
          )
          (stroke (width 0) (type default))
          (fill (type none))
        )
        (polyline
          (pts
            (xy -5.715 -5.715)
            (xy -5.08 -3.81)
          )
          (stroke (width 0) (type default))
          (fill (type none))
        )
        (polyline
          (pts
            (xy -5.715 -5.715)
            (xy -3.81 -6.35)
          )
          (stroke (width 0) (type default))
          (fill (type none))
        )
        (polyline
          (pts
            (xy 1.905 -5.08)
            (xy 5.08 -5.08)
          )
          (stroke (width 0) (type default))
          (fill (type none))
        )
        (polyline
          (pts
            (xy 1.905 5.08)
            (xy 5.08 5.08)
          )
          (stroke (width 0) (type default))
          (fill (type none))
        )
        (polyline
          (pts
            (xy -10.16 -9.525)
            (xy -10.16 -15.24)
            (xy 5.08 -15.24)
          )
          (stroke (width 0) (type default))
          (fill (type none))
        )
        (polyline
          (pts
            (xy -10.16 9.525)
            (xy -10.16 15.24)
            (xy 5.08 15.24)
          )
          (stroke (width 0) (type default))
          (fill (type none))
        )
        (polyline
          (pts
            (xy -6.985 -10.16)
            (xy -6.985 -12.7)
            (xy 5.08 -12.7)
          )
          (stroke (width 0) (type default))
          (fill (type none))
        )
        (polyline
          (pts
            (xy -6.985 10.16)
            (xy -6.985 12.7)
            (xy 5.08 12.7)
          )
          (stroke (width 0) (type default))
          (fill (type none))
        )
        (polyline
          (pts
            (xy -3.175 -8.89)
            (xy 3.175 -8.89)
            (xy 3.175 -10.16)
            (xy 5.08 -10.16)
          )
          (stroke (width 0) (type default))
          (fill (type none))
        )
        (polyline
          (pts
            (xy -3.175 8.89)
            (xy 3.175 8.89)
            (xy 3.175 10.16)
            (xy 5.08 10.16)
          )
          (stroke (width 0) (type default))
          (fill (type none))
        )
        (polyline
          (pts
            (xy 0 -6.985)
            (xy 4.445 -6.985)
            (xy 4.445 -7.62)
            (xy 5.08 -7.62)
          )
          (stroke (width 0) (type default))
          (fill (type none))
        )
        (polyline
          (pts
            (xy 0 6.985)
            (xy 4.445 6.985)
            (xy 4.445 7.62)
            (xy 5.08 7.62)
          )
          (stroke (width 0) (type default))
          (fill (type none))
        )
        (polyline
          (pts
            (xy 3.175 -1.905)
            (xy 4.445 -1.905)
            (xy 4.445 -2.54)
            (xy 5.08 -2.54)
          )
          (stroke (width 0) (type default))
          (fill (type none))
        )
        (polyline
          (pts
            (xy 3.175 1.905)
            (xy 4.445 1.905)
            (xy 4.445 2.54)
            (xy 5.08 2.54)
          )
          (stroke (width 0) (type default))
          (fill (type none))
        )
        (circle (center 1.27 -5.08) (radius 0.635)
          (stroke (width 0) (type default))
          (fill (type none))
        )
        (circle (center 1.27 5.08) (radius 0.635)
          (stroke (width 0) (type default))
          (fill (type none))
        )
        (circle (center 2.54 -1.905) (radius 0.635)
          (stroke (width 0) (type default))
          (fill (type none))
        )
        (circle (center 2.54 1.905) (radius 0.635)
          (stroke (width 0) (type default))
          (fill (type none))
        )
      )
      (symbol "SW_Rotary12_0_1"
        (pin passive line (at 10.16 15.24 180) (length 5.08)
          (name "1" (effects (font (size 1.27 1.27))))
          (number "1" (effects (font (size 1.27 1.27))))
        )
        (pin passive line (at 10.16 -10.16 180) (length 5.08)
          (name "10" (effects (font (size 1.27 1.27))))
          (number "10" (effects (font (size 1.27 1.27))))
        )
        (pin passive line (at 10.16 -12.7 180) (length 5.08)
          (name "11" (effects (font (size 1.27 1.27))))
          (number "11" (effects (font (size 1.27 1.27))))
        )
        (pin passive line (at 10.16 -15.24 180) (length 5.08)
          (name "12" (effects (font (size 1.27 1.27))))
          (number "12" (effects (font (size 1.27 1.27))))
        )
        (pin passive line (at -15.24 0 0) (length 7.62)
          (name "13" (effects (font (size 1.27 1.27))))
          (number "13" (effects (font (size 1.27 1.27))))
        )
        (pin passive line (at 10.16 12.7 180) (length 5.08)
          (name "2" (effects (font (size 1.27 1.27))))
          (number "2" (effects (font (size 1.27 1.27))))
        )
        (pin passive line (at 10.16 10.16 180) (length 5.08)
          (name "3" (effects (font (size 1.27 1.27))))
          (number "3" (effects (font (size 1.27 1.27))))
        )
        (pin passive line (at 10.16 7.62 180) (length 5.08)
          (name "4" (effects (font (size 1.27 1.27))))
          (number "4" (effects (font (size 1.27 1.27))))
        )
        (pin passive line (at 10.16 5.08 180) (length 5.08)
          (name "5" (effects (font (size 1.27 1.27))))
          (number "5" (effects (font (size 1.27 1.27))))
        )
        (pin passive line (at 10.16 2.54 180) (length 5.08)
          (name "6" (effects (font (size 1.27 1.27))))
          (number "6" (effects (font (size 1.27 1.27))))
        )
        (pin passive line (at 10.16 -2.54 180) (length 5.08)
          (name "7" (effects (font (size 1.27 1.27))))
          (number "7" (effects (font (size 1.27 1.27))))
        )
        (pin passive line (at 10.16 -5.08 180) (length 5.08)
          (name "8" (effects (font (size 1.27 1.27))))
          (number "8" (effects (font (size 1.27 1.27))))
        )
        (pin passive line (at 10.16 -7.62 180) (length 5.08)
          (name "9" (effects (font (size 1.27 1.27))))
          (number "9" (effects (font (size 1.27 1.27))))
        )
      )
    )
    (symbol "SW_DP3T_1" (pin_names (offset 0) hide) (in_bom yes) (on_board yes)
      (property "Reference" "SW2" (at 0 6.8367 0)
        (effects (font (size 1.27 1.27)))
      )
      (property "Value" "SW_DP3T" (at 0 4.0616 0)
        (effects (font (size 1.27 1.27)))
      )
      (property "Footprint" "" (at -15.875 4.445 0)
        (effects (font (size 1.27 1.27)) hide)
      )
      (property "Datasheet" "~" (at -15.875 4.445 0)
        (effects (font (size 1.27 1.27)) hide)
      )
      (property "Vendor" "Digi-Key" (at 0 0 0)
        (effects (font (size 1.27 1.27)) hide)
      )
      (property "SKU" "CKN9554-ND" (at 0 0 0)
        (effects (font (size 1.27 1.27)) hide)
      )
      (property "ki_keywords" "switch dp3t ON-ON-ON" (at 0 0 0)
        (effects (font (size 1.27 1.27)) hide)
      )
      (property "ki_description" "SP3T slide switch, C&K OS203012MU5QP1‎" (at 0 0 0)
        (effects (font (size 1.27 1.27)) hide)
      )
      (property "ki_fp_filters" "SW* DP3T*" (at 0 0 0)
        (effects (font (size 1.27 1.27)) hide)
      )
      (symbol "SW_DP3T_1_0_1"
        (circle (center -2.032 0) (radius 0.4572)
          (stroke (width 0) (type default))
          (fill (type none))
        )
        (polyline
          (pts
            (xy -1.651 0.254)
            (xy 1.651 2.286)
          )
          (stroke (width 0) (type default))
          (fill (type none))
        )
        (circle (center 2.032 -2.54) (radius 0.4572)
          (stroke (width 0) (type default))
          (fill (type none))
        )
        (circle (center 2.032 0) (radius 0.4572)
          (stroke (width 0) (type default))
          (fill (type none))
        )
        (circle (center 2.032 2.54) (radius 0.4572)
          (stroke (width 0) (type default))
          (fill (type none))
        )
      )
      (symbol "SW_DP3T_1_1_1"
        (pin passive line (at 5.08 2.54 180) (length 2.54)
          (name "1" (effects (font (size 1.27 1.27))))
          (number "1" (effects (font (size 1.27 1.27))))
        )
        (pin passive line (at -5.08 0 0) (length 2.54)
          (name "2" (effects (font (size 1.27 1.27))))
          (number "2" (effects (font (size 1.27 1.27))))
        )
        (pin passive line (at 5.08 0 180) (length 2.54)
          (name "3" (effects (font (size 1.27 1.27))))
          (number "3" (effects (font (size 1.27 1.27))))
        )
        (pin passive line (at 5.08 -2.54 180) (length 2.54)
          (name "4" (effects (font (size 1.27 1.27))))
          (number "4" (effects (font (size 1.27 1.27))))
        )
      )
      (symbol "SW_DP3T_1_2_1"
        (pin passive line (at 5.08 2.54 180) (length 2.54)
          (name "5" (effects (font (size 1.27 1.27))))
          (number "5" (effects (font (size 1.27 1.27))))
        )
        (pin passive line (at -5.08 0 0) (length 2.54)
          (name "6" (effects (font (size 1.27 1.27))))
          (number "6" (effects (font (size 1.27 1.27))))
        )
        (pin passive line (at 5.08 0 180) (length 2.54)
          (name "7" (effects (font (size 1.27 1.27))))
          (number "7" (effects (font (size 1.27 1.27))))
        )
        (pin passive line (at 5.08 -2.54 180) (length 2.54)
          (name "8" (effects (font (size 1.27 1.27))))
          (number "8" (effects (font (size 1.27 1.27))))
        )
      )
    )
    (symbol "herovco:SW_DP3T" (pin_names (offset 0) hide) (in_bom yes) (on_board yes)
      (property "Reference" "SW2" (at 0 6.8367 0)
        (effects (font (size 1.27 1.27)))
      )
      (property "Value" "SW_DP3T" (at 0 4.0616 0)
        (effects (font (size 1.27 1.27)))
      )
      (property "Footprint" "" (at -15.875 4.445 0)
        (effects (font (size 1.27 1.27)) hide)
      )
      (property "Datasheet" "~" (at -15.875 4.445 0)
        (effects (font (size 1.27 1.27)) hide)
      )
      (property "Vendor" "Digi-Key" (at 0 0 0)
        (effects (font (size 1.27 1.27)) hide)
      )
      (property "SKU" "CKN9554-ND" (at 0 0 0)
        (effects (font (size 1.27 1.27)) hide)
      )
      (property "ki_keywords" "switch dp3t ON-ON-ON" (at 0 0 0)
        (effects (font (size 1.27 1.27)) hide)
      )
      (property "ki_description" "Switch, three position, dual pole triple throw, 3 position switch, SP3T" (at 0 0 0)
        (effects (font (size 1.27 1.27)) hide)
      )
      (property "ki_fp_filters" "SW* DP3T*" (at 0 0 0)
        (effects (font (size 1.27 1.27)) hide)
      )
      (symbol "SW_DP3T_0_1"
        (circle (center -2.032 0) (radius 0.4572)
          (stroke (width 0) (type default))
          (fill (type none))
        )
        (polyline
          (pts
            (xy -1.651 0.254)
            (xy 1.651 2.286)
          )
          (stroke (width 0) (type default))
          (fill (type none))
        )
        (circle (center 2.032 -2.54) (radius 0.4572)
          (stroke (width 0) (type default))
          (fill (type none))
        )
        (circle (center 2.032 0) (radius 0.4572)
          (stroke (width 0) (type default))
          (fill (type none))
        )
        (circle (center 2.032 2.54) (radius 0.4572)
          (stroke (width 0) (type default))
          (fill (type none))
        )
      )
      (symbol "SW_DP3T_1_1"
        (pin passive line (at 5.08 2.54 180) (length 2.54)
          (name "1" (effects (font (size 1.27 1.27))))
          (number "1" (effects (font (size 1.27 1.27))))
        )
        (pin passive line (at -5.08 0 0) (length 2.54)
          (name "2" (effects (font (size 1.27 1.27))))
          (number "2" (effects (font (size 1.27 1.27))))
        )
        (pin passive line (at 5.08 0 180) (length 2.54)
          (name "3" (effects (font (size 1.27 1.27))))
          (number "3" (effects (font (size 1.27 1.27))))
        )
        (pin passive line (at 5.08 -2.54 180) (length 2.54)
          (name "4" (effects (font (size 1.27 1.27))))
          (number "4" (effects (font (size 1.27 1.27))))
        )
      )
      (symbol "SW_DP3T_2_1"
        (pin passive line (at 5.08 2.54 180) (length 2.54)
          (name "5" (effects (font (size 1.27 1.27))))
          (number "5" (effects (font (size 1.27 1.27))))
        )
        (pin passive line (at -5.08 0 0) (length 2.54)
          (name "6" (effects (font (size 1.27 1.27))))
          (number "6" (effects (font (size 1.27 1.27))))
        )
        (pin passive line (at 5.08 0 180) (length 2.54)
          (name "7" (effects (font (size 1.27 1.27))))
          (number "7" (effects (font (size 1.27 1.27))))
        )
        (pin passive line (at 5.08 -2.54 180) (length 2.54)
          (name "8" (effects (font (size 1.27 1.27))))
          (number "8" (effects (font (size 1.27 1.27))))
        )
      )
    )
    (symbol "power:GND1" (power) (pin_names (offset 0)) (in_bom yes) (on_board yes)
      (property "Reference" "#PWR" (at 0 -6.35 0)
        (effects (font (size 1.27 1.27)) hide)
      )
      (property "Value" "GND1" (at 0 -3.81 0)
        (effects (font (size 1.27 1.27)))
      )
      (property "Footprint" "" (at 0 0 0)
        (effects (font (size 1.27 1.27)) hide)
      )
      (property "Datasheet" "" (at 0 0 0)
        (effects (font (size 1.27 1.27)) hide)
      )
      (property "ki_keywords" "power-flag" (at 0 0 0)
        (effects (font (size 1.27 1.27)) hide)
      )
      (property "ki_description" "Power symbol creates a global label with name \"GND1\" , ground" (at 0 0 0)
        (effects (font (size 1.27 1.27)) hide)
      )
      (symbol "GND1_0_1"
        (polyline
          (pts
            (xy 0 0)
            (xy 0 -1.27)
            (xy 1.27 -1.27)
            (xy 0 -2.54)
            (xy -1.27 -1.27)
            (xy 0 -1.27)
          )
          (stroke (width 0) (type default))
          (fill (type none))
        )
      )
      (symbol "GND1_1_1"
        (pin power_in line (at 0 0 270) (length 0) hide
          (name "GND1" (effects (font (size 1.27 1.27))))
          (number "1" (effects (font (size 1.27 1.27))))
        )
      )
    )
  )

  (junction (at 83.82 72.39) (diameter 0) (color 0 0 0 0)
    (uuid 0b9f21ed-3d41-4f23-ae45-74117a5f3153)
  )
  (junction (at 180.34 71.12) (diameter 0) (color 0 0 0 0)
    (uuid 3b20ccbd-7a93-46c7-aada-3ea70e8858f5)
  )
  (junction (at 83.82 57.15) (diameter 0) (color 0 0 0 0)
    (uuid 70d34adf-9bd8-469e-8c77-5c0d7adf511e)
  )
  (junction (at 83.82 64.77) (diameter 0) (color 0 0 0 0)
    (uuid 9e0e6fc0-a269-4822-b93d-4c5e6689ff11)
  )
  (junction (at 83.82 49.53) (diameter 0) (color 0 0 0 0)
    (uuid db10b792-c218-40ad-8580-8057fb3714e7)
  )
  (junction (at 194.31 80.01) (diameter 0) (color 0 0 0 0)
    (uuid eb12b0d8-901f-4310-943d-f0933d8204f1)
  )
  (junction (at 83.82 80.01) (diameter 0) (color 0 0 0 0)
    (uuid f1e266c7-5ac1-4899-8d55-3dc4191446a1)
  )

  (no_connect (at 191.77 85.09) (uuid a03e5cec-cfc9-48a3-a2a9-bb8d5753d5c6))
  (no_connect (at 105.41 57.15) (uuid a25b7e01-1754-4cc9-8a14-3d9c461e5af5))
  (no_connect (at 105.41 52.07) (uuid b509e27e-7502-4731-8753-578e9c653c2c))
  (no_connect (at 105.41 54.61) (uuid b509e27e-7502-4731-8753-578e9c653c2d))
  (no_connect (at 105.41 49.53) (uuid b509e27e-7502-4731-8753-578e9c653c2e))
  (no_connect (at 105.41 67.31) (uuid b509e27e-7502-4731-8753-578e9c653c2f))
  (no_connect (at 105.41 59.69) (uuid b509e27e-7502-4731-8753-578e9c653c30))
  (no_connect (at 105.41 62.23) (uuid b509e27e-7502-4731-8753-578e9c653c31))
  (no_connect (at 179.07 68.58) (uuid c5ca8dc5-a900-4312-8caa-80d8cf1378d2))

  (wire (pts (xy 100.33 128.27) (xy 100.33 129.54))
    (stroke (width 0) (type default))
    (uuid 02dcb5aa-945e-4235-bd47-7193f75b5656)
  )
  (wire (pts (xy 88.9 161.29) (xy 88.9 162.56))
    (stroke (width 0) (type default))
    (uuid 08fd9629-71af-4959-9ecf-bb5532c844b4)
  )
  (wire (pts (xy 100.33 125.73) (xy 99.06 125.73))
    (stroke (width 0) (type default))
    (uuid 0c46fe07-335a-4430-b9e5-fc1429ef6fc8)
  )
  (wire (pts (xy 74.93 46.99) (xy 83.82 46.99))
    (stroke (width 0) (type default))
    (uuid 0cc9bf07-55b9-458f-b8aa-41b2f51fa940)
  )
  (polyline (pts (xy 78.74 86.36) (xy 66.04 86.36))
    (stroke (width 0) (type dash) (color 194 0 194 1))
    (uuid 14094ad2-b562-4efa-8c6f-51d7a3134345)
  )

  (wire (pts (xy 93.98 77.47) (xy 105.41 77.47))
    (stroke (width 0) (type default))
    (uuid 1427bb3f-0689-4b41-a816-cd79a5202fd0)
  )
  (wire (pts (xy 83.82 64.77) (xy 95.25 64.77))
    (stroke (width 0) (type default))
    (uuid 1cb22080-0f59-4c18-a6e6-8685ef44ec53)
  )
  (wire (pts (xy 83.82 57.15) (xy 96.52 57.15))
    (stroke (width 0) (type default))
    (uuid 235067e2-1686-40fe-a9a0-61704311b2b1)
  )
  (wire (pts (xy 181.61 82.55) (xy 180.34 82.55))
    (stroke (width 0) (type default))
    (uuid 24048ac6-9bfe-46e2-bec7-0c1e01af7064)
  )
  (wire (pts (xy 134.62 64.77) (xy 130.81 64.77))
    (stroke (width 0) (type default))
    (uuid 241e0c85-4796-48eb-a5a0-1c0f2d6e5910)
  )
  (wire (pts (xy 97.79 69.85) (xy 105.41 69.85))
    (stroke (width 0) (type default))
    (uuid 31f91ec8-56e4-4e08-9ccd-012652772211)
  )
  (polyline (pts (xy 49.53 21.59) (xy 49.53 93.98))
    (stroke (width 0) (type dash))
    (uuid 35c09d1f-2914-4d1e-a002-df30af772f3b)
  )

  (wire (pts (xy 196.85 80.01) (xy 194.31 80.01))
    (stroke (width 0) (type default))
    (uuid 3a815d36-b7bc-4845-af2c-b47aa6a0ef0e)
  )
  (wire (pts (xy 88.9 146.05) (xy 88.9 147.32))
    (stroke (width 0) (type default))
    (uuid 3ae26fdf-ea99-43cf-a5b2-5fcecf6ecf8f)
  )
  (wire (pts (xy 191.77 82.55) (xy 194.31 82.55))
    (stroke (width 0) (type default))
    (uuid 3bab9eec-5fc4-47ad-97b9-fb64252326c9)
  )
  (polyline (pts (xy 153.67 21.59) (xy 153.67 93.98))
    (stroke (width 0) (type dash))
    (uuid 3f2d00b6-adbf-4a5e-b757-d2fd095efbaa)
  )

  (wire (pts (xy 90.17 146.05) (xy 88.9 146.05))
    (stroke (width 0) (type default))
    (uuid 3f427194-42da-41e1-b26d-ed64f497e375)
  )
  (polyline (pts (xy 222.25 21.59) (xy 222.25 93.98))
    (stroke (width 0) (type dash))
    (uuid 419cd6ec-a488-4914-8147-cea928dc8b33)
  )
  (polyline (pts (xy 148.59 21.59) (xy 148.59 93.98))
    (stroke (width 0) (type dash))
    (uuid 422b10b9-e829-44a2-8808-05edd8cb3050)
  )

  (wire (pts (xy 90.17 161.29) (xy 88.9 161.29))
    (stroke (width 0) (type default))
    (uuid 493c034e-5b0e-4f4b-aef2-7da80d3c2b52)
  )
  (wire (pts (xy 83.82 80.01) (xy 105.41 80.01))
    (stroke (width 0) (type default))
    (uuid 59cb2966-1e9c-4b3b-b3c8-7499378d8dde)
  )
  (polyline (pts (xy 120.65 109.22) (xy 120.65 175.26))
    (stroke (width 0) (type dash))
    (uuid 5e94bc2b-f136-4f30-a527-9ff2cacf90c9)
  )
  (polyline (pts (xy 88.9 44.45) (xy 88.9 86.36))
    (stroke (width 0) (type dash) (color 194 0 194 1))
    (uuid 5ff19d63-2cb4-438b-93c4-e66d37a05329)
  )

  (wire (pts (xy 93.98 72.39) (xy 93.98 77.47))
    (stroke (width 0) (type default))
    (uuid 616287d9-a51f-498c-8b91-be46a0aa3a7f)
  )
  (polyline (pts (xy 88.9 86.36) (xy 104.14 86.36))
    (stroke (width 0) (type dash) (color 194 0 194 1))
    (uuid 637f12be-fa48-4ce4-96b2-04c21a8795c8)
  )
  (polyline (pts (xy 179.07 157.48) (xy 179.07 109.22))
    (stroke (width 0) (type dash))
    (uuid 6415485b-4a78-456e-b112-f1ce25139b4e)
  )
  (polyline (pts (xy 120.65 175.26) (xy 68.58 175.26))
    (stroke (width 0) (type dash))
    (uuid 66dc524d-06c4-45cb-af92-738a02c04963)
  )
  (polyline (pts (xy 104.14 91.44) (xy 66.04 91.44))
    (stroke (width 0) (type dash) (color 194 0 194 1))
    (uuid 6cb535a7-247d-4f99-997d-c21b160eadfa)
  )

  (wire (pts (xy 96.52 57.15) (xy 96.52 72.39))
    (stroke (width 0) (type default))
    (uuid 701e1517-e8cf-46f4-b538-98e721c97380)
  )
  (wire (pts (xy 151.13 130.81) (xy 152.4 130.81))
    (stroke (width 0) (type default))
    (uuid 7080533c-bf98-4985-a97e-c3db62cc0d61)
  )
  (polyline (pts (xy 78.74 44.45) (xy 88.9 44.45))
    (stroke (width 0) (type dash) (color 194 0 194 1))
    (uuid 740acb76-6b57-4daa-b606-51503ac4cf5e)
  )

  (wire (pts (xy 95.25 74.93) (xy 105.41 74.93))
    (stroke (width 0) (type default))
    (uuid 78f9c3d3-3556-46f6-9744-05ad54b330f0)
  )
  (wire (pts (xy 194.31 80.01) (xy 191.77 80.01))
    (stroke (width 0) (type default))
    (uuid 7b9a511f-932d-42b1-951a-eacdfab76ac1)
  )
  (wire (pts (xy 88.9 158.75) (xy 90.17 158.75))
    (stroke (width 0) (type default))
    (uuid 80f03d11-7c2a-4309-88a2-fca5bd47a73c)
  )
  (wire (pts (xy 99.06 128.27) (xy 100.33 128.27))
    (stroke (width 0) (type default))
    (uuid 87ed7bd0-3701-4340-a032-d18782414966)
  )
  (wire (pts (xy 96.52 72.39) (xy 105.41 72.39))
    (stroke (width 0) (type default))
    (uuid 8b7bbefd-8f78-41f8-809c-2534a5de3b39)
  )
  (wire (pts (xy 95.25 64.77) (xy 95.25 74.93))
    (stroke (width 0) (type default))
    (uuid 8bdea5f6-7a53-427a-92b8-fd15994c2e8c)
  )
  (wire (pts (xy 88.9 143.51) (xy 90.17 143.51))
    (stroke (width 0) (type default))
    (uuid 8c033a39-b6d3-4fb7-a058-f0928032e9a4)
  )
  (wire (pts (xy 182.88 66.04) (xy 179.07 66.04))
    (stroke (width 0) (type default))
    (uuid 95f39bc9-c673-49e3-92ec-b5500e23e399)
  )
  (wire (pts (xy 83.82 49.53) (xy 97.79 49.53))
    (stroke (width 0) (type default))
    (uuid 98861672-254d-432b-8e5a-10d885a5ffdc)
  )
  (wire (pts (xy 180.34 82.55) (xy 180.34 71.12))
    (stroke (width 0) (type default))
    (uuid 9c456be0-2e37-477f-bd6a-b1fa820a429b)
  )
  (wire (pts (xy 189.23 71.12) (xy 180.34 71.12))
    (stroke (width 0) (type default))
    (uuid a4198b97-0eaf-4bfa-9c20-437ec859da28)
  )
  (polyline (pts (xy 135.89 109.22) (xy 135.89 157.48))
    (stroke (width 0) (type dash))
    (uuid a4473ca6-d577-4bed-aea4-66ab56abbbd2)
  )
  (polyline (pts (xy 68.58 109.22) (xy 120.65 109.22))
    (stroke (width 0) (type dash))
    (uuid a4a8e985-877d-4bd9-a196-a3be8d47becb)
  )

  (wire (pts (xy 83.82 72.39) (xy 93.98 72.39))
    (stroke (width 0) (type default))
    (uuid a599509f-fbb9-4db4-9adf-9e96bab1138d)
  )
  (wire (pts (xy 180.34 71.12) (xy 179.07 71.12))
    (stroke (width 0) (type default))
    (uuid adbd8690-8abe-41bf-a675-589d33c443c6)
  )
  (wire (pts (xy 194.31 82.55) (xy 194.31 80.01))
    (stroke (width 0) (type default))
    (uuid b2cd24e7-a539-4a13-a143-4d7a88740bad)
  )
  (wire (pts (xy 97.79 49.53) (xy 97.79 69.85))
    (stroke (width 0) (type default))
    (uuid b75c1827-5655-4b23-9b5b-2c81e2514b55)
  )
  (polyline (pts (xy 135.89 157.48) (xy 179.07 157.48))
    (stroke (width 0) (type dash))
    (uuid b791bbfc-d993-45ad-970d-040d2c3b254d)
  )

  (wire (pts (xy 83.82 80.01) (xy 83.82 82.55))
    (stroke (width 0) (type default))
    (uuid bb68bb77-c15b-4811-bbdb-af51bc19707a)
  )
  (polyline (pts (xy 153.67 21.59) (xy 222.25 21.59))
    (stroke (width 0) (type dash))
    (uuid be18af53-d7bf-4a98-bcc6-5948323e0fac)
  )

  (wire (pts (xy 161.29 130.81) (xy 160.02 130.81))
    (stroke (width 0) (type default))
    (uuid c55530bd-98d9-470d-8762-d543d527b1f4)
  )
  (wire (pts (xy 74.93 82.55) (xy 83.82 82.55))
    (stroke (width 0) (type default))
    (uuid c8ab8246-b2bb-4b06-b45e-2548482466fd)
  )
  (polyline (pts (xy 78.74 44.45) (xy 78.74 86.36))
    (stroke (width 0) (type dash) (color 194 0 194 1))
    (uuid cbebc05a-c4dd-4baf-8c08-196e84e08b27)
  )
  (polyline (pts (xy 66.04 86.36) (xy 66.04 91.44))
    (stroke (width 0) (type dash) (color 194 0 194 1))
    (uuid cc75e5ae-3348-4e7a-bd16-4df685ee47bd)
  )
  (polyline (pts (xy 135.89 109.22) (xy 179.07 109.22))
    (stroke (width 0) (type dash))
    (uuid d7955550-0341-4b28-82ba-575a6752dbf0)
  )
  (polyline (pts (xy 222.25 93.98) (xy 153.67 93.98))
    (stroke (width 0) (type dash))
    (uuid d8db881e-974e-4d28-b8f8-52e4042d31c2)
  )

  (wire (pts (xy 156.21 135.89) (xy 156.21 134.62))
    (stroke (width 0) (type default))
    (uuid e27e5280-e3de-43ce-b4c0-a9ad3f39d1f0)
  )
  (polyline (pts (xy 49.53 93.98) (xy 148.59 93.98))
    (stroke (width 0) (type dash))
    (uuid e2b24e25-1a0d-434a-876b-c595b47d80d2)
  )

  (wire (pts (xy 83.82 46.99) (xy 83.82 49.53))
    (stroke (width 0) (type default))
    (uuid f3c8cdbd-66ca-49e9-b523-fef056a74a8f)
  )
  (polyline (pts (xy 68.58 109.22) (xy 68.58 175.26))
    (stroke (width 0) (type dash))
    (uuid f60f8e8e-e81a-434c-afd1-5aec8aa52daa)
  )
  (polyline (pts (xy 104.14 86.36) (xy 104.14 91.44))
    (stroke (width 0) (type dash) (color 194 0 194 1))
    (uuid f7447e92-4293-41c4-be3f-69b30aad1f17)
  )
  (polyline (pts (xy 49.53 21.59) (xy 148.59 21.59))
    (stroke (width 0) (type dash))
    (uuid fad4c712-0a2e-465d-a9f8-83d26bd66e37)
  )

  (text "SYNC\nSWITCH" (at 162.56 36.83 0)
    (effects (font (size 3.81 3.81)) (justify left bottom))
    (uuid 42c96fd6-e53c-4bac-8c30-ce815b75bafc)
  )
  (text "JACKS" (at 76.2 119.38 0)
    (effects (font (size 3.81 3.81)) (justify left bottom))
    (uuid 4b1d4a86-e1b8-4f21-9f06-06bc770fb384)
  )
  (text "OCTAVE\nSWITCH" (at 55.88 36.83 0)
    (effects (font (size 3.81 3.81)) (justify left bottom))
    (uuid 974c48bf-534e-4335-98e1-b0426c783e99)
  )
  (text "Precision or hand matched resistors" (at 67.31 89.535 0)
    (effects (font (size 1.27 1.27)) (justify left bottom))
    (uuid f5c43e09-08d6-4a29-a53a-3b9ea7fb34cd)
  )
  (text "POT" (at 142.24 119.38 0)
    (effects (font (size 3.81 3.81)) (justify left bottom))
    (uuid fe864ec1-fc51-4e2c-9ce4-2597f9ea1ae8)
  )

  (hierarchical_label "OCTAVE_P" (shape output) (at 134.62 64.77 0) (fields_autoplaced)
    (effects (font (size 1.27 1.27)) (justify left))
    (uuid 20901d7e-a300-4069-8967-a6a7e97a68bc)
  )
  (hierarchical_label "FINE_TUNE_P" (shape output) (at 156.21 135.89 270) (fields_autoplaced)
    (effects (font (size 1.27 1.27)) (justify right))
    (uuid 211dfd37-e33e-470c-b1a8-653f93495a72)
  )
  (hierarchical_label "+5VREF_P" (shape input) (at 161.29 130.81 0) (fields_autoplaced)
    (effects (font (size 1.27 1.27)) (justify left))
    (uuid 3803ce8c-21fc-4839-975e-8794146d9b4a)
  )
  (hierarchical_label "SAW_P" (shape input) (at 88.9 158.75 180) (fields_autoplaced)
    (effects (font (size 1.27 1.27)) (justify right))
    (uuid 618cc2ea-37e9-4f48-b709-fe763a48c042)
  )
  (hierarchical_label "LIN_FM_IN_J" (shape output) (at 100.33 125.73 0) (fields_autoplaced)
    (effects (font (size 1.27 1.27)) (justify left))
    (uuid 7758d4e2-0b6a-43d2-a7ee-080e293ecca7)
  )
  (hierarchical_label "+2V_REF_P" (shape input) (at 74.93 46.99 180) (fields_autoplaced)
    (effects (font (size 1.27 1.27)) (justify right))
    (uuid 7c9ae737-f151-4cc3-aa7c-8c2d4bbe525f)
  )
  (hierarchical_label "-5VREF_P" (shape input) (at 151.13 130.81 180) (fields_autoplaced)
    (effects (font (size 1.27 1.27)) (justify right))
    (uuid 942a8486-fbcf-4ef2-b335-e812292683e0)
  )
  (hierarchical_label "-2V_REF_P" (shape input) (at 74.93 82.55 180) (fields_autoplaced)
    (effects (font (size 1.27 1.27)) (justify right))
    (uuid aaced409-3f53-44c6-bd28-b4114479114e)
  )
  (hierarchical_label "SOFT_SYNC_OFF_P" (shape output) (at 196.85 80.01 0) (fields_autoplaced)
    (effects (font (size 1.27 1.27)) (justify left))
    (uuid be7ebe40-2623-472b-9d9d-7a6a533e866a)
  )
  (hierarchical_label "SYNCA_P" (shape input) (at 168.91 68.58 180) (fields_autoplaced)
    (effects (font (size 1.27 1.27)) (justify right))
    (uuid c547c749-87b7-41db-9cd5-1933410fe6f8)
  )
  (hierarchical_label "HARD_SYNCA_P" (shape output) (at 182.88 66.04 0) (fields_autoplaced)
    (effects (font (size 1.27 1.27)) (justify left))
    (uuid c65511b9-5ffd-4364-bd12-897299f4a9f2)
  )
  (hierarchical_label "TRI_P" (shape input) (at 88.9 143.51 180) (fields_autoplaced)
    (effects (font (size 1.27 1.27)) (justify right))
    (uuid c938148f-d347-4815-82b4-c35205989400)
  )
  (hierarchical_label "SOFT_SYNCA_P" (shape output) (at 189.23 71.12 0) (fields_autoplaced)
    (effects (font (size 1.27 1.27)) (justify left))
    (uuid d7e10d39-505b-4085-8aba-ec0d1dcfabae)
  )

  (symbol (lib_id "AO_symbols:SW_Rotary12") (at 115.57 64.77 180) (unit 1)
    (in_bom yes) (on_board no) (dnp no)
    (uuid 00000000-0000-0000-0000-000060ac1298)
    (property "Reference" "SW1" (at 118.11 43.815 0)
      (effects (font (size 1.27 1.27)))
    )
    (property "Value" "SW_Rotary12" (at 118.11 46.1264 0)
      (effects (font (size 1.27 1.27)))
    )
    (property "Footprint" "" (at 120.65 82.55 0)
      (effects (font (size 1.27 1.27)) hide)
    )
    (property "Datasheet" "http://cdn-reichelt.de/documents/datenblatt/C200/DS-Serie%23LOR.pdf" (at 120.65 82.55 0)
      (effects (font (size 1.27 1.27)) hide)
    )
    (property "Vendor" "Tayda" (at 115.57 64.77 0)
      (effects (font (size 1.27 1.27)) hide)
    )
    (property "SKU" "A-1893" (at 115.57 64.77 0)
      (effects (font (size 1.27 1.27)) hide)
    )
    (pin "1" (uuid 5a88c3ca-46f9-43b3-85ca-af59be856a77))
    (pin "10" (uuid da9cf1d9-cc4c-4c81-b499-efff9ab62206))
    (pin "11" (uuid d96c508c-741c-4c72-92d0-853928b1746a))
    (pin "12" (uuid e55ce93c-21d8-45ba-9a73-128a2ffef115))
    (pin "13" (uuid 93e44e8b-0e09-4e89-9c63-2243f9b3ad64))
    (pin "2" (uuid 20a8d100-ffee-4d58-abd3-9d1f0ab21380))
    (pin "3" (uuid 5d098867-a1a8-412b-b7ce-8e0773c84122))
    (pin "4" (uuid 4b0bd71d-3b99-4796-bb29-14d7148df8f6))
    (pin "5" (uuid 7d3b8c9f-67b0-477e-9e88-95d53cbb38bf))
    (pin "6" (uuid 93437b37-72d1-4202-be66-0ae83c6fcf3e))
    (pin "7" (uuid 797067e3-7af7-44fd-8f06-9ab8a01ae0b6))
    (pin "8" (uuid 61aeebd6-7570-41c6-96ec-aadbac529b03))
    (pin "9" (uuid 179f68f0-a496-4478-807a-8a228ac1fdea))
    (instances
      (project "sidekickvco"
        (path "/5c30b9b4-3014-4f50-9329-27a539b67e01/00000000-0000-0000-0000-0000619704e4"
          (reference "SW1") (unit 1)
        )
      )
    )
  )

  (symbol (lib_id "AO_symbols:R") (at 83.82 53.34 0) (mirror x) (unit 1)
    (in_bom yes) (on_board no) (dnp no)
    (uuid 00000000-0000-0000-0000-000061655593)
    (property "Reference" "R30" (at 85.09 51.435 0)
      (effects (font (size 1.27 1.27)) (justify left))
    )
    (property "Value" "10k 1/8W" (at 85.09 53.34 0)
      (effects (font (size 1.27 1.27)) (justify left))
    )
    (property "Footprint" "" (at 82.042 53.34 90)
      (effects (font (size 1.27 1.27)) hide)
    )
    (property "Datasheet" "~" (at 83.82 53.34 0)
      (effects (font (size 1.27 1.27)) hide)
    )
    (property "Vendor" "Tayda" (at 83.82 53.34 0)
      (effects (font (size 1.27 1.27)) hide)
    )
    (pin "1" (uuid 8dcb7dff-2fa7-46d9-872e-815a4f7e4e2c))
    (pin "2" (uuid 82f5ced0-6a77-4247-9e28-dff39ce9beef))
    (instances
      (project "sidekickvco"
        (path "/5c30b9b4-3014-4f50-9329-27a539b67e01/00000000-0000-0000-0000-0000619704e4"
          (reference "R30") (unit 1)
        )
      )
    )
  )

  (symbol (lib_id "AO_symbols:R") (at 83.82 60.96 0) (mirror x) (unit 1)
    (in_bom yes) (on_board no) (dnp no)
    (uuid 00000000-0000-0000-0000-000061655952)
    (property "Reference" "R31" (at 85.09 59.055 0)
      (effects (font (size 1.27 1.27)) (justify left))
    )
    (property "Value" "10k 1/8W" (at 85.09 60.96 0)
      (effects (font (size 1.27 1.27)) (justify left))
    )
    (property "Footprint" "" (at 82.042 60.96 90)
      (effects (font (size 1.27 1.27)) hide)
    )
    (property "Datasheet" "~" (at 83.82 60.96 0)
      (effects (font (size 1.27 1.27)) hide)
    )
    (property "Vendor" "Tayda" (at 83.82 60.96 0)
      (effects (font (size 1.27 1.27)) hide)
    )
    (pin "1" (uuid 2564daff-866d-4158-82a6-4ab8fc331f70))
    (pin "2" (uuid 6b21a68b-2c7a-46e4-9118-8ba706e8d4b5))
    (instances
      (project "sidekickvco"
        (path "/5c30b9b4-3014-4f50-9329-27a539b67e01/00000000-0000-0000-0000-0000619704e4"
          (reference "R31") (unit 1)
        )
      )
    )
  )

  (symbol (lib_id "AO_symbols:R") (at 83.82 68.58 0) (mirror x) (unit 1)
    (in_bom yes) (on_board no) (dnp no)
    (uuid 00000000-0000-0000-0000-000061655c11)
    (property "Reference" "R32" (at 85.09 66.675 0)
      (effects (font (size 1.27 1.27)) (justify left))
    )
    (property "Value" "10k 1/8W" (at 85.09 68.58 0)
      (effects (font (size 1.27 1.27)) (justify left))
    )
    (property "Footprint" "" (at 82.042 68.58 90)
      (effects (font (size 1.27 1.27)) hide)
    )
    (property "Datasheet" "~" (at 83.82 68.58 0)
      (effects (font (size 1.27 1.27)) hide)
    )
    (property "Vendor" "Tayda" (at 83.82 68.58 0)
      (effects (font (size 1.27 1.27)) hide)
    )
    (pin "1" (uuid 476a5842-b603-4dc5-b824-13cb746c88f4))
    (pin "2" (uuid 2598fe79-811a-4379-9f30-7cfc6f119770))
    (instances
      (project "sidekickvco"
        (path "/5c30b9b4-3014-4f50-9329-27a539b67e01/00000000-0000-0000-0000-0000619704e4"
          (reference "R32") (unit 1)
        )
      )
    )
  )

  (symbol (lib_id "AO_symbols:R") (at 83.82 76.2 0) (mirror x) (unit 1)
    (in_bom yes) (on_board no) (dnp no)
    (uuid 00000000-0000-0000-0000-000061655f36)
    (property "Reference" "R33" (at 85.09 74.295 0)
      (effects (font (size 1.27 1.27)) (justify left))
    )
    (property "Value" "10k 1/8W" (at 85.09 76.2 0)
      (effects (font (size 1.27 1.27)) (justify left))
    )
    (property "Footprint" "" (at 82.042 76.2 90)
      (effects (font (size 1.27 1.27)) hide)
    )
    (property "Datasheet" "~" (at 83.82 76.2 0)
      (effects (font (size 1.27 1.27)) hide)
    )
    (property "Vendor" "Tayda" (at 83.82 76.2 0)
      (effects (font (size 1.27 1.27)) hide)
    )
    (pin "1" (uuid fa0bea75-2b55-4127-9751-457e0e6d77e5))
    (pin "2" (uuid a3a673df-b74f-4028-83ff-5d2d54a46dcf))
    (instances
      (project "sidekickvco"
        (path "/5c30b9b4-3014-4f50-9329-27a539b67e01/00000000-0000-0000-0000-0000619704e4"
          (reference "R33") (unit 1)
        )
      )
    )
  )

  (symbol (lib_id "AO_symbols:Graphic") (at 201.93 38.1 0) (unit 1)
    (in_bom no) (on_board yes) (dnp no) (fields_autoplaced)
    (uuid 083e1a17-4d2b-41f4-9f1b-ca7db66d10c6)
    (property "Reference" "GRAF4" (at 208.915 37.1915 0)
      (effects (font (size 1.27 1.27)) (justify left))
    )
    (property "Value" "board" (at 208.915 39.9666 0)
      (effects (font (size 1.27 1.27)) (justify left))
    )
    (property "Footprint" "sidekickvco:sidekick_daughterboard" (at 201.93 38.1 0)
      (effects (font (size 1.27 1.27)) hide)
    )
    (property "Datasheet" "" (at 201.93 38.1 0)
      (effects (font (size 1.27 1.27)) hide)
    )
    (property "Config" "DNF" (at 201.93 38.1 0)
      (effects (font (size 1.27 1.27)) hide)
    )
    (instances
      (project "sidekickvco"
        (path "/5c30b9b4-3014-4f50-9329-27a539b67e01/00000000-0000-0000-0000-0000619704e4"
          (reference "GRAF4") (unit 1)
        )
      )
    )
  )

  (symbol (lib_id "power:GND1") (at 88.9 147.32 0) (unit 1)
    (in_bom yes) (on_board yes) (dnp no)
    (uuid 22493358-1dc7-487a-b86e-46a39a742353)
    (property "Reference" "#PWR045" (at 88.9 153.67 0)
      (effects (font (size 1.27 1.27)) hide)
    )
    (property "Value" "GND1" (at 89.027 151.7142 0)
      (effects (font (size 1.27 1.27)))
    )
    (property "Footprint" "" (at 88.9 147.32 0)
      (effects (font (size 1.27 1.27)) hide)
    )
    (property "Datasheet" "" (at 88.9 147.32 0)
      (effects (font (size 1.27 1.27)) hide)
    )
    (pin "1" (uuid 26e47fdd-fd72-4be4-a496-8eea053b96e2))
    (instances
      (project "sidekickvco"
        (path "/5c30b9b4-3014-4f50-9329-27a539b67e01/00000000-0000-0000-0000-0000619704e4"
          (reference "#PWR045") (unit 1)
        )
      )
    )
  )

  (symbol (lib_id "AO_symbols:AudioJack2") (at 93.98 125.73 0) (mirror x) (unit 1)
    (in_bom yes) (on_board no) (dnp no)
    (uuid 230f6b61-3655-431e-a3be-19b6c1e97561)
    (property "Reference" "J23" (at 89.408 125.2982 0)
      (effects (font (size 1.27 1.27)) (justify right))
    )
    (property "Value" "AudioJack2" (at 89.408 127.6096 0)
      (effects (font (size 1.27 1.27)) (justify right))
    )
    (property "Footprint" "" (at 93.98 125.73 0)
      (effects (font (size 1.27 1.27)) hide)
    )
    (property "Datasheet" "~" (at 93.98 125.73 0)
      (effects (font (size 1.27 1.27)) hide)
    )
    (property "Vendor" "Tayda" (at 93.98 125.73 0)
      (effects (font (size 1.27 1.27)) hide)
    )
    (property "SKU" "A-1121" (at 93.98 125.73 0)
      (effects (font (size 1.27 1.27)) hide)
    )
    (property "Description" "1/4\" audio jack, vertical" (at 93.98 125.73 0)
      (effects (font (size 1.27 1.27)) hide)
    )
    (pin "S" (uuid 15dee00f-ed45-44ed-a1f5-fb7b22ff88db))
    (pin "T" (uuid 782e6dfe-c67e-445d-a973-80c1ab505ffd))
    (instances
      (project "sidekickvco"
        (path "/5c30b9b4-3014-4f50-9329-27a539b67e01/00000000-0000-0000-0000-0000619704e4"
          (reference "J23") (unit 1)
        )
      )
    )
  )

  (symbol (lib_id "AO_symbols:R_POT") (at 156.21 130.81 270) (unit 1)
    (in_bom yes) (on_board no) (dnp no)
    (uuid 28567c43-840a-4cfa-a763-f2f8d9bcb25b)
    (property "Reference" "RV5" (at 156.21 125.5522 90)
      (effects (font (size 1.27 1.27)))
    )
    (property "Value" "100k" (at 156.21 127.8636 90)
      (effects (font (size 1.27 1.27)))
    )
    (property "Footprint" "" (at 156.21 130.81 0)
      (effects (font (size 1.27 1.27)) hide)
    )
    (property "Datasheet" "~" (at 156.21 130.81 0)
      (effects (font (size 1.27 1.27)) hide)
    )
    (property "Vendor" "Tayda" (at 156.21 130.81 0)
      (effects (font (size 1.27 1.27)) hide)
    )
    (property "Description" "Panel mount linear potentiometer" (at 156.21 130.81 0)
      (effects (font (size 1.27 1.27)) hide)
    )
    (property "SKU" "A-5606 or A-1984" (at 156.21 130.81 0)
      (effects (font (size 1.27 1.27)) hide)
    )
    (pin "1" (uuid ffee9554-0017-4fdd-ab48-bcf389901314))
    (pin "2" (uuid 0dd063a9-5532-49aa-8cb7-1fe920bb05b4))
    (pin "3" (uuid 599c6520-8691-4e2c-81c6-9d50c3dd7f68))
    (instances
      (project "sidekickvco"
        (path "/5c30b9b4-3014-4f50-9329-27a539b67e01/00000000-0000-0000-0000-0000619704e4"
          (reference "RV5") (unit 1)
        )
      )
    )
  )

  (symbol (lib_id "AO_symbols:AudioJack2") (at 95.25 158.75 180) (unit 1)
    (in_bom yes) (on_board no) (dnp no)
    (uuid 30462785-3014-427e-bdbe-948f94bef958)
    (property "Reference" "J25" (at 99.822 158.3182 0)
      (effects (font (size 1.27 1.27)) (justify right))
    )
    (property "Value" "AudioJack2" (at 99.822 160.6296 0)
      (effects (font (size 1.27 1.27)) (justify right))
    )
    (property "Footprint" "" (at 95.25 158.75 0)
      (effects (font (size 1.27 1.27)) hide)
    )
    (property "Datasheet" "~" (at 95.25 158.75 0)
      (effects (font (size 1.27 1.27)) hide)
    )
    (property "Vendor" "Tayda" (at 95.25 158.75 0)
      (effects (font (size 1.27 1.27)) hide)
    )
    (property "SKU" "A-1121" (at 95.25 158.75 0)
      (effects (font (size 1.27 1.27)) hide)
    )
    (property "Description" "1/4\" audio jack, vertical" (at 95.25 158.75 0)
      (effects (font (size 1.27 1.27)) hide)
    )
    (pin "S" (uuid 4df4f259-1a57-457b-a6ea-e32414d46006))
    (pin "T" (uuid e9c2938d-c908-4c98-89c9-adf3206c1596))
    (instances
      (project "sidekickvco"
        (path "/5c30b9b4-3014-4f50-9329-27a539b67e01/00000000-0000-0000-0000-0000619704e4"
          (reference "J25") (unit 1)
        )
      )
    )
  )

  (symbol (lib_id "power:GND1") (at 100.33 129.54 0) (mirror y) (unit 1)
    (in_bom yes) (on_board yes) (dnp no)
    (uuid 5878e401-e33b-4a79-9cd2-bd495dee15b8)
    (property "Reference" "#PWR047" (at 100.33 135.89 0)
      (effects (font (size 1.27 1.27)) hide)
    )
    (property "Value" "GND1" (at 100.203 133.9342 0)
      (effects (font (size 1.27 1.27)))
    )
    (property "Footprint" "" (at 100.33 129.54 0)
      (effects (font (size 1.27 1.27)) hide)
    )
    (property "Datasheet" "" (at 100.33 129.54 0)
      (effects (font (size 1.27 1.27)) hide)
    )
    (pin "1" (uuid f61b09c5-3dc3-4147-b0a6-ab36fea48917))
    (instances
      (project "sidekickvco"
        (path "/5c30b9b4-3014-4f50-9329-27a539b67e01/00000000-0000-0000-0000-0000619704e4"
          (reference "#PWR047") (unit 1)
        )
      )
    )
  )

  (symbol (lib_id "AO_symbols:MountingHole") (at 204.47 54.61 0) (unit 1)
    (in_bom no) (on_board yes) (dnp no) (fields_autoplaced)
    (uuid 6a9f627f-79c9-4a99-88fc-ef4d97fd2494)
    (property "Reference" "H2" (at 207.01 53.7015 0)
      (effects (font (size 1.27 1.27)) (justify left))
    )
    (property "Value" "MountingHole" (at 207.01 56.4766 0)
      (effects (font (size 1.27 1.27)) (justify left))
    )
    (property "Footprint" "AO_tht:MountingHole_3.2mm_M3" (at 204.47 54.61 0)
      (effects (font (size 1.27 1.27)) hide)
    )
    (property "Datasheet" "" (at 204.47 54.61 0)
      (effects (font (size 1.27 1.27)) hide)
    )
    (property "Config" "DNF" (at 204.47 54.61 0)
      (effects (font (size 1.27 1.27)) hide)
    )
    (instances
      (project "sidekickvco"
        (path "/5c30b9b4-3014-4f50-9329-27a539b67e01/00000000-0000-0000-0000-0000619704e4"
          (reference "H2") (unit 1)
        )
      )
    )
  )

  (symbol (lib_id "AO_symbols:AudioJack2") (at 95.25 143.51 180) (unit 1)
    (in_bom yes) (on_board no) (dnp no)
    (uuid 71834995-75cf-4a77-8b98-f69df391c817)
    (property "Reference" "J24" (at 99.822 143.0782 0)
      (effects (font (size 1.27 1.27)) (justify right))
    )
    (property "Value" "AudioJack2" (at 99.822 145.3896 0)
      (effects (font (size 1.27 1.27)) (justify right))
    )
    (property "Footprint" "" (at 95.25 143.51 0)
      (effects (font (size 1.27 1.27)) hide)
    )
    (property "Datasheet" "~" (at 95.25 143.51 0)
      (effects (font (size 1.27 1.27)) hide)
    )
    (property "Vendor" "Tayda" (at 95.25 143.51 0)
      (effects (font (size 1.27 1.27)) hide)
    )
    (property "SKU" "A-1121" (at 95.25 143.51 0)
      (effects (font (size 1.27 1.27)) hide)
    )
    (property "Description" "1/4\" audio jack, vertical" (at 95.25 143.51 0)
      (effects (font (size 1.27 1.27)) hide)
    )
    (pin "S" (uuid 555f4b88-ce55-46d8-b3e2-8c435ed668e9))
    (pin "T" (uuid b0ee4cf2-88be-44d4-aaf5-1ba6f365bec1))
    (instances
      (project "sidekickvco"
        (path "/5c30b9b4-3014-4f50-9329-27a539b67e01/00000000-0000-0000-0000-0000619704e4"
          (reference "J24") (unit 1)
        )
      )
    )
  )

  (symbol (lib_id "herovco:SW_DP3T") (at 186.69 82.55 0) (unit 1)
    (in_bom yes) (on_board yes) (dnp no) (fields_autoplaced)
    (uuid 8d682bf5-0e15-4e21-9047-68accb6c155e)
    (property "Reference" "SW2" (at 186.69 75.7133 0)
      (effects (font (size 1.27 1.27)))
    )
    (property "Value" "SW_DP3T" (at 186.69 78.4884 0)
      (effects (font (size 1.27 1.27)))
    )
    (property "Footprint" "sidekickvco:SW_CK_OS203012MU5QP1_DP3T" (at 170.815 78.105 0)
      (effects (font (size 1.27 1.27)) hide)
    )
    (property "Datasheet" "~" (at 170.815 78.105 0)
      (effects (font (size 1.27 1.27)) hide)
    )
    (property "Vendor" "Digi-Key" (at 186.69 82.55 0)
      (effects (font (size 1.27 1.27)) hide)
    )
    (property "SKU" "CKN9554-ND" (at 186.69 82.55 0)
      (effects (font (size 1.27 1.27)) hide)
    )
    (property "Description" "SP3T slide switch, C&K OS203012MU5QP1‎" (at 186.69 82.55 0)
      (effects (font (size 1.27 1.27)) hide)
    )
    (pin "1" (uuid 3224a1df-98da-411b-afcd-fefeaea4d08b))
    (pin "2" (uuid 5bc27149-28ef-49d9-ac2a-24119869239e))
    (pin "3" (uuid a8644c48-9f17-400b-966c-039d84f43b22))
    (pin "4" (uuid 89a63664-cb4a-4ddd-95b4-4741a56e185a))
    (pin "5" (uuid 9be5bfd6-bb09-4bcc-b7df-07ae161053e2))
    (pin "6" (uuid 37081654-8f99-4a40-95a5-cb89ab90304e))
    (pin "7" (uuid 982b7bd6-301a-4a29-b4bb-333ee127a858))
    (pin "8" (uuid 2ce8fc04-dee9-4db8-90b8-839b250529bc))
    (instances
      (project "sidekickvco"
        (path "/5c30b9b4-3014-4f50-9329-27a539b67e01/00000000-0000-0000-0000-0000619704e4"
          (reference "SW2") (unit 1)
        )
      )
    )
  )

  (symbol (lib_id "AO_symbols:MountingHole") (at 204.47 48.26 0) (unit 1)
    (in_bom no) (on_board yes) (dnp no) (fields_autoplaced)
    (uuid 9d959ba1-c0bd-4c41-a733-888a168ca5b2)
    (property "Reference" "H1" (at 207.01 47.3515 0)
      (effects (font (size 1.27 1.27)) (justify left))
    )
    (property "Value" "MountingHole" (at 207.01 50.1266 0)
      (effects (font (size 1.27 1.27)) (justify left))
    )
    (property "Footprint" "AO_tht:MountingHole_3.2mm_M3" (at 204.47 48.26 0)
      (effects (font (size 1.27 1.27)) hide)
    )
    (property "Datasheet" "" (at 204.47 48.26 0)
      (effects (font (size 1.27 1.27)) hide)
    )
    (property "Config" "DNF" (at 204.47 48.26 0)
      (effects (font (size 1.27 1.27)) hide)
    )
    (instances
      (project "sidekickvco"
        (path "/5c30b9b4-3014-4f50-9329-27a539b67e01/00000000-0000-0000-0000-0000619704e4"
          (reference "H1") (unit 1)
        )
      )
    )
  )

  (symbol (lib_id "power:GND1") (at 88.9 162.56 0) (unit 1)
    (in_bom yes) (on_board yes) (dnp no)
    (uuid ce400e62-15f8-4d76-906b-61124aebc6b8)
    (property "Reference" "#PWR046" (at 88.9 168.91 0)
      (effects (font (size 1.27 1.27)) hide)
    )
    (property "Value" "GND1" (at 89.027 166.9542 0)
      (effects (font (size 1.27 1.27)))
    )
    (property "Footprint" "" (at 88.9 162.56 0)
      (effects (font (size 1.27 1.27)) hide)
    )
    (property "Datasheet" "" (at 88.9 162.56 0)
      (effects (font (size 1.27 1.27)) hide)
    )
    (pin "1" (uuid 0f3f904d-f950-489c-ba8a-0840c18ede1a))
    (instances
      (project "sidekickvco"
        (path "/5c30b9b4-3014-4f50-9329-27a539b67e01/00000000-0000-0000-0000-0000619704e4"
          (reference "#PWR046") (unit 1)
        )
      )
    )
  )

  (symbol (lib_name "SW_DP3T_1") (lib_id "herovco:SW_DP3T") (at 173.99 68.58 0) (unit 2)
    (in_bom yes) (on_board yes) (dnp no) (fields_autoplaced)
    (uuid d1626ab3-238c-4525-89f7-4eb751ae92a2)
    (property "Reference" "SW2" (at 173.99 61.7433 0)
      (effects (font (size 1.27 1.27)))
    )
    (property "Value" "SW_DP3T" (at 173.99 64.5184 0)
      (effects (font (size 1.27 1.27)))
    )
    (property "Footprint" "sidekickvco:SW_CK_OS203012MU5QP1_DP3T" (at 158.115 64.135 0)
      (effects (font (size 1.27 1.27)) hide)
    )
    (property "Datasheet" "~" (at 158.115 64.135 0)
      (effects (font (size 1.27 1.27)) hide)
    )
    (property "Vendor" "Digi-Key" (at 173.99 68.58 0)
      (effects (font (size 1.27 1.27)) hide)
    )
    (property "SKU" "CKN9554-ND" (at 173.99 68.58 0)
      (effects (font (size 1.27 1.27)) hide)
    )
    (pin "1" (uuid 27785605-ef8c-4fa7-8f40-8dba236a9cba))
    (pin "2" (uuid 29440566-f617-45c7-8f5f-efafe2f0d24b))
    (pin "3" (uuid 7bd5b512-af4d-43db-aa46-0fc231d1db36))
    (pin "4" (uuid d227fc0c-bf2f-4fed-b7fc-74a4cfce6442))
    (pin "5" (uuid fa3ff8aa-6c5f-430c-b013-cb9477d223b1))
    (pin "6" (uuid f980f4c4-3de1-486c-b766-22db16a9ba27))
    (pin "7" (uuid 1fe0edc7-e7fa-48dd-a46d-cc8651a2f8d2))
    (pin "8" (uuid 049ea07b-0aa7-4b35-ad65-6232fe39c10f))
    (instances
      (project "sidekickvco"
        (path "/5c30b9b4-3014-4f50-9329-27a539b67e01/00000000-0000-0000-0000-0000619704e4"
          (reference "SW2") (unit 2)
        )
      )
    )
  )

  (symbol (lib_id "AO_symbols:Board") (at 203.2 27.94 0) (unit 1)
    (in_bom no) (on_board yes) (dnp no) (fields_autoplaced)
    (uuid d4348534-4ffd-4fb0-8bf4-ec53f2e50799)
    (property "Reference" "B2" (at 208.915 27.0315 0)
      (effects (font (size 1.27 1.27)) (justify left))
    )
    (property "Value" "Board" (at 208.915 29.8066 0)
      (effects (font (size 1.27 1.27)) (justify left))
    )
    (property "Footprint" "AO_tht:Board_Marker" (at 203.2 27.94 0)
      (effects (font (size 1.27 1.27)) hide)
    )
    (property "Datasheet" "" (at 203.2 27.94 0)
      (effects (font (size 1.27 1.27)) hide)
    )
    (property "Config" "DNF" (at 203.2 27.94 0)
      (effects (font (size 1.27 1.27)) hide)
    )
    (instances
      (project "sidekickvco"
        (path "/5c30b9b4-3014-4f50-9329-27a539b67e01/00000000-0000-0000-0000-0000619704e4"
          (reference "B2") (unit 1)
        )
      )
    )
  )
)
