G04 #@! TF.GenerationSoftware,KiCad,Pcbnew,7.0.11-7.0.11~ubuntu22.04.1*
G04 #@! TF.CreationDate,2024-03-24T10:34:23-04:00*
G04 #@! TF.ProjectId,sidekickvco_switchPCB,73696465-6b69-4636-9b76-636f5f737769,2024-03-24*
G04 #@! TF.SameCoordinates,Original*
G04 #@! TF.FileFunction,Copper,L2,Bot*
G04 #@! TF.FilePolarity,Positive*
%FSLAX46Y46*%
G04 Gerber Fmt 4.6, Leading zero omitted, Abs format (unit mm)*
G04 Created by KiCad (PCBNEW 7.0.11-7.0.11~ubuntu22.04.1) date 2024-03-24 10:34:23*
%MOMM*%
%LPD*%
G01*
G04 APERTURE LIST*
G04 Aperture macros list*
%AMRoundRect*
0 Rectangle with rounded corners*
0 $1 Rounding radius*
0 $2 $3 $4 $5 $6 $7 $8 $9 X,Y pos of 4 corners*
0 Add a 4 corners polygon primitive as box body*
4,1,4,$2,$3,$4,$5,$6,$7,$8,$9,$2,$3,0*
0 Add four circle primitives for the rounded corners*
1,1,$1+$1,$2,$3*
1,1,$1+$1,$4,$5*
1,1,$1+$1,$6,$7*
1,1,$1+$1,$8,$9*
0 Add four rect primitives between the rounded corners*
20,1,$1+$1,$2,$3,$4,$5,0*
20,1,$1+$1,$4,$5,$6,$7,0*
20,1,$1+$1,$6,$7,$8,$9,0*
20,1,$1+$1,$8,$9,$2,$3,0*%
G04 Aperture macros list end*
G04 #@! TA.AperFunction,WasherPad*
%ADD10C,1.600000*%
G04 #@! TD*
G04 #@! TA.AperFunction,ComponentPad*
%ADD11R,1.600000X1.600000*%
G04 #@! TD*
G04 #@! TA.AperFunction,ComponentPad*
%ADD12C,1.600000*%
G04 #@! TD*
G04 #@! TA.AperFunction,ComponentPad*
%ADD13C,2.100000*%
G04 #@! TD*
G04 #@! TA.AperFunction,ComponentPad*
%ADD14RoundRect,0.250001X0.799999X0.799999X-0.799999X0.799999X-0.799999X-0.799999X0.799999X-0.799999X0*%
G04 #@! TD*
G04 #@! TA.AperFunction,Conductor*
%ADD15C,0.250000*%
G04 #@! TD*
G04 APERTURE END LIST*
D10*
G04 #@! TO.P,SW2,*
G04 #@! TO.N,*
X138938200Y-104820400D03*
X155138200Y-99220400D03*
D11*
G04 #@! TO.P,SW2,1,1*
G04 #@! TO.N,Board_0-/Panel mounted components/SOFT_SYNC_OFF_P*
X143038200Y-103270400D03*
D12*
G04 #@! TO.P,SW2,2,2*
G04 #@! TO.N,Board_0-/Panel mounted components/SOFT_SYNCA_P*
X148038200Y-103270400D03*
G04 #@! TO.P,SW2,3,3*
G04 #@! TO.N,Board_0-/Panel mounted components/SOFT_SYNC_OFF_P*
X150538200Y-103270400D03*
G04 #@! TO.P,SW2,4,4*
G04 #@! TO.N,Board_0-unconnected-(SW2-Pad4)*
X153038200Y-103270400D03*
G04 #@! TO.P,SW2,5,5*
G04 #@! TO.N,Board_0-/Panel mounted components/HARD_SYNCA_P*
X143038200Y-100770400D03*
G04 #@! TO.P,SW2,6,6*
G04 #@! TO.N,Board_0-/Panel mounted components/SYNCA_P*
X148038200Y-100770400D03*
G04 #@! TO.P,SW2,7,7*
G04 #@! TO.N,Board_0-unconnected-(SW2-Pad7)*
X150538200Y-100770400D03*
G04 #@! TO.P,SW2,8,8*
G04 #@! TO.N,Board_0-/Panel mounted components/SOFT_SYNCA_P*
X153038200Y-100770400D03*
G04 #@! TD*
D13*
G04 #@! TO.P,J17,1,Pin_1*
G04 #@! TO.N,Board_0-/Panel mounted components/SOFT_SYNCA_P*
X160010000Y-91010000D03*
G04 #@! TD*
G04 #@! TO.P,J16,1,Pin_1*
G04 #@! TO.N,Board_0-/Panel mounted components/SOFT_SYNC_OFF_P*
X156200000Y-91010000D03*
G04 #@! TD*
G04 #@! TO.P,J15,1,Pin_1*
G04 #@! TO.N,Board_0-/Panel mounted components/SYNCA_P*
X152390000Y-91010000D03*
G04 #@! TD*
D14*
G04 #@! TO.P,J14,1,Pin_1*
G04 #@! TO.N,Board_0-/Panel mounted components/HARD_SYNCA_P*
X148580000Y-91010000D03*
G04 #@! TD*
D15*
G04 #@! TO.N,Board_0-/Panel mounted components/SOFT_SYNCA_P*
X149162711Y-102145889D02*
X151662711Y-102145889D01*
X148038200Y-103270400D02*
X149162711Y-102145889D01*
X151662711Y-102145889D02*
X153038200Y-100770400D01*
G04 #@! TO.N,Board_0-/Panel mounted components/SOFT_SYNC_OFF_P*
X144162711Y-104394911D02*
X149413689Y-104394911D01*
X143038200Y-103270400D02*
X144162711Y-104394911D01*
X149413689Y-104394911D02*
X150538200Y-103270400D01*
G04 #@! TD*
M02*
