G04 #@! TF.GenerationSoftware,KiCad,Pcbnew,7.0.11-7.0.11~ubuntu22.04.1*
G04 #@! TF.CreationDate,2024-03-11T09:59:06-04:00*
G04 #@! TF.ProjectId,sidekickvco_panel,73696465-6b69-4636-9b76-636f5f70616e,rev?*
G04 #@! TF.SameCoordinates,Original*
G04 #@! TF.FileFunction,Other,Comment*
%FSLAX46Y46*%
G04 Gerber Fmt 4.6, Leading zero omitted, Abs format (unit mm)*
G04 Created by KiCad (PCBNEW 7.0.11-7.0.11~ubuntu22.04.1) date 2024-03-11 09:59:06*
%MOMM*%
%LPD*%
G01*
G04 APERTURE LIST*
%ADD10C,0.120000*%
%ADD11C,0.150000*%
G04 APERTURE END LIST*
D10*
G04 #@! TO.C,H17*
X47000000Y0D02*
X44200000Y0D01*
X47000000Y6000000D02*
X44200000Y6000000D01*
X47000000Y194000000D02*
X44200000Y194000000D01*
X47000000Y200000000D02*
X44200000Y200000000D01*
X47000000Y0D02*
G75*
G03*
X47000000Y6000000I0J3000000D01*
G01*
X47000000Y194000000D02*
G75*
G03*
X47000000Y200000000I0J3000000D01*
G01*
X44200000Y6000000D02*
G75*
G03*
X44200000Y0I0J-3000000D01*
G01*
X44200000Y200000000D02*
G75*
G03*
X44200000Y194000000I0J-3000000D01*
G01*
D11*
G04 #@! TO.C,H9*
X43300000Y151000000D02*
G75*
G03*
X40700000Y151000000I-1300000J0D01*
G01*
X40700000Y151000000D02*
G75*
G03*
X43300000Y151000000I1300000J0D01*
G01*
G04 #@! TO.C,H8*
X34500000Y167000000D02*
G75*
G03*
X15500000Y167000000I-9500000J0D01*
G01*
X15500000Y167000000D02*
G75*
G03*
X34500000Y167000000I9500000J0D01*
G01*
G04 #@! TO.C,H1*
X22000000Y75000000D02*
G75*
G03*
X3000000Y75000000I-9500000J0D01*
G01*
X3000000Y75000000D02*
G75*
G03*
X22000000Y75000000I9500000J0D01*
G01*
D10*
G04 #@! TO.C,H16*
X3000000Y200000000D02*
X5800000Y200000000D01*
X3000000Y194000000D02*
X5800000Y194000000D01*
X3000000Y6000000D02*
X5800000Y6000000D01*
X3000000Y0D02*
X5800000Y0D01*
X3000000Y200000000D02*
G75*
G03*
X3000000Y194000000I0J-3000000D01*
G01*
X3000000Y6000000D02*
G75*
G03*
X3000000Y0I0J-3000000D01*
G01*
X5800000Y194000000D02*
G75*
G03*
X5800000Y200000000I0J3000000D01*
G01*
X5800000Y0D02*
G75*
G03*
X5800000Y6000000I0J3000000D01*
G01*
D11*
G04 #@! TO.C,H2*
X22000000Y50000000D02*
G75*
G03*
X3000000Y50000000I-9500000J0D01*
G01*
X3000000Y50000000D02*
G75*
G03*
X22000000Y50000000I9500000J0D01*
G01*
G04 #@! TO.C,H5*
X22000000Y25000000D02*
G75*
G03*
X3000000Y25000000I-9500000J0D01*
G01*
X3000000Y25000000D02*
G75*
G03*
X22000000Y25000000I9500000J0D01*
G01*
G04 #@! TO.C,H6*
X48000000Y50000000D02*
G75*
G03*
X27000000Y50000000I-10500000J0D01*
G01*
X27000000Y50000000D02*
G75*
G03*
X48000000Y50000000I10500000J0D01*
G01*
G04 #@! TO.C,H11*
X9200000Y106000000D02*
G75*
G03*
X2800000Y106000000I-3200000J0D01*
G01*
X2800000Y106000000D02*
G75*
G03*
X9200000Y106000000I3200000J0D01*
G01*
G04 #@! TO.C,H15*
X28200000Y88000000D02*
G75*
G03*
X21800000Y88000000I-3200000J0D01*
G01*
X21800000Y88000000D02*
G75*
G03*
X28200000Y88000000I3200000J0D01*
G01*
G04 #@! TO.C,H7*
X48000000Y25000000D02*
G75*
G03*
X27000000Y25000000I-10500000J0D01*
G01*
X27000000Y25000000D02*
G75*
G03*
X48000000Y25000000I10500000J0D01*
G01*
G04 #@! TO.C,H10*
X43300000Y139000000D02*
G75*
G03*
X40700000Y139000000I-1300000J0D01*
G01*
X40700000Y139000000D02*
G75*
G03*
X43300000Y139000000I1300000J0D01*
G01*
G04 #@! TO.C,H14*
X43300000Y115000000D02*
G75*
G03*
X40700000Y115000000I-1300000J0D01*
G01*
X40700000Y115000000D02*
G75*
G03*
X43300000Y115000000I1300000J0D01*
G01*
G04 #@! TO.C,H13*
X43300000Y127000000D02*
G75*
G03*
X40700000Y127000000I-1300000J0D01*
G01*
X40700000Y127000000D02*
G75*
G03*
X43300000Y127000000I1300000J0D01*
G01*
G04 #@! TO.C,H3*
X48000000Y100000000D02*
G75*
G03*
X27000000Y100000000I-10500000J0D01*
G01*
X27000000Y100000000D02*
G75*
G03*
X48000000Y100000000I10500000J0D01*
G01*
G04 #@! TO.C,H12*
X32000000Y127000000D02*
G75*
G03*
X18000000Y127000000I-7000000J0D01*
G01*
X18000000Y127000000D02*
G75*
G03*
X32000000Y127000000I7000000J0D01*
G01*
G04 #@! TO.C,H4*
X47980000Y75000000D02*
G75*
G03*
X26980000Y75000000I-10500000J0D01*
G01*
X26980000Y75000000D02*
G75*
G03*
X47980000Y75000000I10500000J0D01*
G01*
G04 #@! TD*
M02*
