G04 #@! TF.GenerationSoftware,KiCad,Pcbnew,7.0.11-7.0.11~ubuntu22.04.1*
G04 #@! TF.CreationDate,2024-03-24T10:50:41-04:00*
G04 #@! TF.ProjectId,sidekickvco_switchPCB,73696465-6b69-4636-9b76-636f5f737769,2024-03-24*
G04 #@! TF.SameCoordinates,Original*
G04 #@! TF.FileFunction,Other,Comment*
%FSLAX46Y46*%
G04 Gerber Fmt 4.6, Leading zero omitted, Abs format (unit mm)*
G04 Created by KiCad (PCBNEW 7.0.11-7.0.11~ubuntu22.04.1) date 2024-03-24 10:50:41*
%MOMM*%
%LPD*%
G01*
G04 APERTURE LIST*
%ADD10C,0.150000*%
G04 APERTURE END LIST*
D10*
G04 #@! TO.C,H1*
X162700000Y-109000000D02*
G75*
G03*
X156300000Y-109000000I-3200000J0D01*
G01*
X156300000Y-109000000D02*
G75*
G03*
X162700000Y-109000000I3200000J0D01*
G01*
G04 #@! TO.C,H2*
X143700000Y-91000000D02*
G75*
G03*
X137300000Y-91000000I-3200000J0D01*
G01*
X137300000Y-91000000D02*
G75*
G03*
X143700000Y-91000000I3200000J0D01*
G01*
G04 #@! TD*
M02*
